March Madness Blog Post - A Hugo website
…
xgb_grid <- grid_latin_hypercube(
  trees(),
  tree_depth(),
  min_n(),
  loss_reduction(),
  sample_size = sample_prop(),
  finalize(mtry(), bracket_train),
  learn_rate(),
  size = 30
)

xgb_grid

## # A tibble: 30 x 7
##    trees tree_depth min_n loss_reduction sample_size  mtry learn_rate
##    <int>      <int> <int>          <dbl>       <dbl> <int>      <dbl>
##  1   832         11    17  0.0662              0.545    11   1.66e- 4
##  2    40          3     7  0.0207              0.282    12   9.19e- 8
##  3  1857         12    28  0.00393             0.367     1   2.71e- 7
##  4  1493          6    29  3.87                0.797     6   4.67e- 4
##  5  1428         10    36  0.00000000981       0.118     3   3.12e- 6
##  6   183         13    36  0.00000328          0.137     4   6.97e- 9
##  7   694          5    24  0.00168             0.486     7   4.04e-10
##  8   261          3    12  0.00000000101       0.422    14   4.91e- 8
##  9   628          5    35  0.0000107           0.607     3   5.07e- 7
## 10  1630         10     7  0.00584             0.864     8   5.00e- 5
## # … with 20 more rows
…
Here I expand the metrics for our xgboost.

collect_metrics(xgb_res)

## # A tibble: 60 x 13
##     mtry trees min_n tree_depth learn_rate loss_reduction sample_size .metric
##    <int> <int> <int>      <int>      <dbl>          <dbl>       <dbl> <chr>  
##  1     2   742    21          1    1.67e-2  5.43                0.571 accura…
##  2     2   742    21          1    1.67e-2  5.43                0.571 roc_auc
##  3     9   281    16          2    1.85e-7  0.483               0.656 accura…
##  4     9   281    16          2    1.85e-7  0.483               0.656 roc_auc
##  5     7   939    39          2    9.39e-4  0.0329              0.726 accura…
##  6     7   939    39          2    9.39e-4  0.0329              0.726 roc_auc
##  7    12    40     7          3    9.19e-8  0.0207              0.282 accura…
##  8    12    40     7          3    9.19e-8  0.0207              0.282 roc_auc
##  9    14   261    12          3    4.91e-8  0.00000000101       0.422 accura…
## 10    14   261    12          3    4.91e-8  0.00000000101       0.422 roc_auc
## # … with 50 more rows, and 5 more variables: .estimator <chr>, mean <dbl>,
## #   n <int>, std_err <dbl>, .config <fct>
…
